{
  "notes": [
    {
      "id": 3,
      "body": "loloo",
      "checked": true
    },
    {
      "id": 5,
      "body": "loloo2",
      "checked": false
    },
    {
      "id": 6,
      "body": "loloo3",
      "checked": false
    },
    {
      "id": 8,
      "body": "aviv",
      "checked": false
    },
    {
      "id": 9,
      "body": "aviv2",
      "checked": true
    },
    {
      "id": 10,
      "body": "shlomi",
      "checked": false
    },
    {
      "id": 11,
      "body": "shlomi2",
      "checked": false
    }
  ],
  "currentId": 12
}